%YAML 1.1
%TAG !u! tag:unity3d.com,2011:
--- !u!21 &2100000
Material:
  serializedVersion: 6
  m_ObjectHideFlags: 0
  m_CorrespondingSourceObject: {fileID: 0}
  m_PrefabInstance: {fileID: 0}
  m_PrefabAsset: {fileID: 0}
  m_Name: Rock_Mossy_Generic
  m_Shader: {fileID: 4800000, guid: e6022ff824110af4d896d51e1d56926a, type: 3}
  m_ShaderKeywords: _NORMALMAP _PROCEDURALSNOW _PROCEDURALSNOW_ON
  m_LightmapFlags: 4
  m_EnableInstancingVariants: 1
  m_DoubleSidedGI: 0
  m_CustomRenderQueue: -1
  stringTagMap: {}
  disabledShaderPasses: []
  m_SavedProperties:
    serializedVersion: 3
    m_TexEnvs:
    - _BumpMap:
        m_Texture: {fileID: 2800000, guid: 6a256ff4665fea941a24f7265e4aa3e2, type: 3}
        m_Scale: {x: 1, y: 1}
        m_Offset: {x: 0, y: 0}
    - _DetailAlbedoMap:
        m_Texture: {fileID: 0}
        m_Scale: {x: 1, y: 1}
        m_Offset: {x: 0, y: 0}
    - _DetailMask:
        m_Texture: {fileID: 0}
        m_Scale: {x: 1, y: 1}
        m_Offset: {x: 0, y: 0}
    - _DetailNormalMap:
        m_Texture: {fileID: 0}
        m_Scale: {x: 1, y: 1}
        m_Offset: {x: 0, y: 0}
    - _EmissionMap:
        m_Texture: {fileID: 0}
        m_Scale: {x: 2, y: 2}
        m_Offset: {x: 0, y: 0}
    - _MainTex:
        m_Texture: {fileID: 2800000, guid: 11fffd6e686082748b36d57d91ec78eb, type: 3}
        m_Scale: {x: 2, y: 2}
        m_Offset: {x: 0, y: 0}
    - _MetallicGlossMap:
        m_Texture: {fileID: 0}
        m_Scale: {x: 1, y: 1}
        m_Offset: {x: 0, y: 0}
    - _OcclusionMap:
        m_Texture: {fileID: 0}
        m_Scale: {x: 1, y: 1}
        m_Offset: {x: 0, y: 0}
    - _ParallaxMap:
        m_Texture: {fileID: 0}
        m_Scale: {x: 1, y: 1}
        m_Offset: {x: 0, y: 0}
    - _SnowTexture:
        m_Texture: {fileID: 2800000, guid: 9b6669c3dbb492c468daf6183cb99a80, type: 3}
        m_Scale: {x: 1, y: 1}
        m_Offset: {x: 0, y: 0}
    m_Floats:
    - _BumpScale: 1
    - _CullMode: 2
    - _CullModeForward: 2
    - _Cutoff: 0.5
    - _DetailNormalMapScale: 1
    - _DoubleSidedEnable: 0
    - _DoubleSidedNormalMode: 1
    - _DstBlend: 0
    - _FlatShading: 0
    - _FlatShadingAngleMax: 0
    - _FlatShadingAngleMin: 0
    - _FlatShadingState: 0
    - _FlatShadingStrengthObject: 0
    - _GlossMapScale: 1
    - _Glossiness: 0.2
    - _GlossyReflections: 1
    - _HeightFalloff: 1000
    - _Metallic: 0
    - _Mode: 0
    - _OcclusionStrength: 1
    - _Parallax: 0.02
    - _ProceduralLayer: 1
    - _ProceduralSnow: 1
    - _ShakeBending: 1.33
    - _ShakeTime: 0.85
    - _ShakeWindspeed: 1.25
    - _SmoothnessTextureChannel: 0
    - _SnowDamping: 0
    - _SnowLevel: 0.5
    - _SnowSmoothness: 1
    - _SnowStartHeight: 3600
    - _SnowState: 1
    - _SnowThickness: 0
    - _SnowTiling: 10
    - _SpecularHighlights: 1
    - _SrcBlend: 1
    - _UVSec: 0
    - _Wind: 0
    - _WindState: 0
    - _ZWrite: 1
    m_Colors:
    - _Color: {r: 0.4644706, g: 0.48094118, b: 0.504, a: 1}
    - _DoubleSidedConstants: {r: 1, g: 1, b: -1, a: 0}
    - _EmissionColor: {r: 0, g: 0, b: 0, a: 0}
    - _SnowColor: {r: 1, g: 1, b: 1, a: 1}
    - _SnowDirection: {r: 0, g: 1, b: 0, a: 1}
